%YAML 1.1
%TAG !u! tag:unity3d.com,2011:
--- !u!181963792 &2655988077585873504
Preset:
  m_ObjectHideFlags: 0
  m_CorrespondingSourceObject: {fileID: 0}
  m_PrefabInstance: {fileID: 0}
  m_PrefabAsset: {fileID: 0}
  m_Name: MeshRenderer
  m_TargetType:
    m_NativeTypeID: 23
    m_ManagedTypePPtr: {fileID: 0}
    m_ManagedTypeFallback: 
  m_Properties:
  - target: {fileID: 0}
    propertyPath: m_Enabled
    value: 1
    objectReference: {fileID: 0}
  - target: {fileID: 0}
    propertyPath: m_CastShadows
    value: 0
    objectReference: {fileID: 0}
  - target: {fileID: 0}
    propertyPath: m_ReceiveShadows
    value: 0
    objectReference: {fileID: 0}
  - target: {fileID: 0}
    propertyPath: m_DynamicOccludee
    value: 1
    objectReference: {fileID: 0}
  - target: {fileID: 0}
    propertyPath: m_MotionVectors
    value: 0
    objectReference: {fileID: 0}
  - target: {fileID: 0}
    propertyPath: m_LightProbeUsage
    value: 0
    objectReference: {fileID: 0}
  - target: {fileID: 0}
    propertyPath: m_ReflectionProbeUsage
    value: 0
    objectReference: {fileID: 0}
  - target: {fileID: 0}
    propertyPath: m_RayTracingMode
    value: 2
    objectReference: {fileID: 0}
  - target: {fileID: 0}
    propertyPath: m_RenderingLayerMask
    value: 1
    objectReference: {fileID: 0}
  - target: {fileID: 0}
    propertyPath: m_RendererPriority
    value: 0
    objectReference: {fileID: 0}
  - target: {fileID: 0}
    propertyPath: m_Materials.Array.size
    value: 1
    objectReference: {fileID: 0}
  - target: {fileID: 0}
    propertyPath: m_Materials.Array.data[0]
    value: 
    objectReference: {fileID: 10303, guid: 0000000000000000f000000000000000, type: 0}
  - target: {fileID: 0}
    propertyPath: m_StaticBatchInfo.firstSubMesh
    value: 0
    objectReference: {fileID: 0}
  - target: {fileID: 0}
    propertyPath: m_StaticBatchInfo.subMeshCount
    value: 0
    objectReference: {fileID: 0}
  - target: {fileID: 0}
    propertyPath: m_StaticBatchRoot
    value: 
    objectReference: {fileID: 0}
  - target: {fileID: 0}
    propertyPath: m_ProbeAnchor
    value: 
    objectReference: {fileID: 0}
  - target: {fileID: 0}
    propertyPath: m_LightProbeVolumeOverride
    value: 
    objectReference: {fileID: 0}
  - target: {fileID: 0}
    propertyPath: m_ScaleInLightmap
    value: 1
    objectReference: {fileID: 0}
  - target: {fileID: 0}
    propertyPath: m_ReceiveGI
    value: 1
    objectReference: {fileID: 0}
  - target: {fileID: 0}
    propertyPath: m_PreserveUVs
    value: 0
    objectReference: {fileID: 0}
  - target: {fileID: 0}
    propertyPath: m_IgnoreNormalsForChartDetection
    value: 0
    objectReference: {fileID: 0}
  - target: {fileID: 0}
    propertyPath: m_ImportantGI
    value: 0
    objectReference: {fileID: 0}
  - target: {fileID: 0}
    propertyPath: m_StitchLightmapSeams
    value: 1
    objectReference: {fileID: 0}
  - target: {fileID: 0}
    propertyPath: m_SelectedEditorRenderState
    value: 3
    objectReference: {fileID: 0}
  - target: {fileID: 0}
    propertyPath: m_MinimumChartSize
    value: 4
    objectReference: {fileID: 0}
  - target: {fileID: 0}
    propertyPath: m_AutoUVMaxDistance
    value: 0.5
    objectReference: {fileID: 0}
  - target: {fileID: 0}
    propertyPath: m_AutoUVMaxAngle
    value: 89
    objectReference: {fileID: 0}
  - target: {fileID: 0}
    propertyPath: m_LightmapParameters
    value: 
    objectReference: {fileID: 0}
  - target: {fileID: 0}
    propertyPath: m_SortingLayerID
    value: 0
    objectReference: {fileID: 0}
  - target: {fileID: 0}
    propertyPath: m_SortingLayer
    value: 0
    objectReference: {fileID: 0}
  - target: {fileID: 0}
    propertyPath: m_SortingOrder
    value: 0
    objectReference: {fileID: 0}
